…
```r
clean_names(deserts)
```

```
## # A tibble: 34,786 x 13
##    record_id month   day  year plot_id species_id sex   hindfoot_length weight
##        <dbl> <dbl> <dbl> <dbl>   <dbl> <chr>      <chr>           <dbl>  <dbl>
##  1         1     7    16  1977       2 NL         M                  32     NA
##  2         2     7    16  1977       3 NL         M                  33     NA
##  3         3     7    16  1977       2 DM         F                  37     NA
##  4         4     7    16  1977       7 DM         M                  36     NA
##  5         5     7    16  1977       3 DM         M                  35     NA
##  6         6     7    16  1977       1 PF         M                  14     NA
##  7         7     7    16  1977       2 PE         F                  NA     NA
##  8         8     7    16  1977       1 DM         M                  37     NA
##  9         9     7    16  1977       1 DM         F                  34     NA
## 10        10     7    16  1977       6 PF         F                  20     NA
## # ... with 34,776 more rows, and 4 more variables: genus <chr>, species <chr>,
## #   taxa <chr>, plot_type <chr>
```
…
```
##  [1] "record_id"       "month"           "day"             "year"           
##  [5] "plot_id"         "species_id"      "sex"             "hindfoot_length"
##  [9] "weight"          "genus"           "species"         "taxa"           
## [13] "plot_type"
```

```r
deserts%>%
  count(species,genus)%>%
  arrange(desc(n))
```

```
## # A tibble: 48 x 3
##    species      genus               n
##    <chr>        <chr>           <int>
##  1 merriami     Dipodomys       10596
##  2 penicillatus Chaetodipus      3123
##  3 ordii        Dipodomys        3027
##  4 baileyi      Chaetodipus      2891
##  5 megalotis    Reithrodontomys  2609
##  6 spectabilis  Dipodomys        2504
##  7 torridus     Onychomys        2249
##  8 flavus       Perognathus      1597
##  9 eremicus     Peromyscus       1299
## 10 albigula     Neotoma          1252
## # ... with 38 more rows
```

```r
deserts%>%
  count(species,genus)%>%
  arrange(n)
```

```
## # A tibble: 48 x 3
##    species      genus               n
##    <chr>        <chr>           <int>
##  1 clarki       Sceloporus          1
##  2 scutalatus   Crotalus            1
##  3 tereticaudus Spermophilus        1
##  4 tigris       Cnemidophorus       1
##  5 uniparens    Cnemidophorus       1
##  6 viridis      Crotalus            1
##  7 leucophrys   Zonotrichia         2
##  8 savannarum   Ammodramus          2
##  9 sp.          Reithrodontomys     2
## 10 sp.          Lizard              4
## # ... with 38 more rows
```
…
7. [Dipodomys merriami](https://en.wikipedia.org/wiki/Merriam's_kangaroo_rat) is the most frequently sampled animal in the study. How have the number of observations of this species changed over the years included in the study?

```r
structure(deserts)
```

```
## # A tibble: 34,786 x 13
##    record_id month   day  year plot_id species_id sex   hindfoot_length weight
##        <dbl> <dbl> <dbl> <dbl>   <dbl> <chr>      <chr>           <dbl>  <dbl>
##  1         1     7    16  1977       2 NL         M                  32     NA
##  2         2     7    16  1977       3 NL         M                  33     NA
##  3         3     7    16  1977       2 DM         F                  37     NA
##  4         4     7    16  1977       7 DM         M                  36     NA
##  5         5     7    16  1977       3 DM         M                  35     NA
##  6         6     7    16  1977       1 PF         M                  14     NA
##  7         7     7    16  1977       2 PE         F                  NA     NA
##  8         8     7    16  1977       1 DM         M                  37     NA
##  9         9     7    16  1977       1 DM         F                  34     NA
## 10        10     7    16  1977       6 PF         F                  20     NA
## # ... with 34,776 more rows, and 4 more variables: genus <chr>, species <chr>,
## #   taxa <chr>, plot_type <chr>
```
…
9. Which two species have, on average, the highest weight? Once you have identified them, make a new column that is a ratio of `weight` to `hindfoot_length`. Make a plot that shows the range of this new ratio and fill by sex.

```r
deserts%>%
  filter(weight!="NA")%>%
  summarise(species,weight,sex)%>%
  arrange(desc(weight))%>%
  group_by(species)%>%
  summarise(avg_top_2=mean(weight,na.rm=T))%>%
  arrange(desc(avg_top_2))
```

```
## # A tibble: 22 x 2
##    species      avg_top_2
##    <chr>            <dbl>
##  1 albigula         159. 
##  2 spectabilis      120. 
##  3 spilosoma         93.5
##  4 hispidus          65.6
##  5 fulviventer       58.9
##  6 ochrognathus      55.4
##  7 ordii             48.9
##  8 merriami          43.2
##  9 baileyi           31.7
## 10 leucogaster       31.6
## # ... with 12 more rows
```
…
