…
```r
clean_names(gapminder)
```

```
## # A tibble: 1,704 x 6
##    country     continent  year life_exp      pop gdp_percap
##    <fct>       <fct>     <int>    <dbl>    <int>      <dbl>
##  1 Afghanistan Asia       1952     28.8  8425333       779.
##  2 Afghanistan Asia       1957     30.3  9240934       821.
##  3 Afghanistan Asia       1962     32.0 10267083       853.
##  4 Afghanistan Asia       1967     34.0 11537966       836.
##  5 Afghanistan Asia       1972     36.1 13079460       740.
##  6 Afghanistan Asia       1977     38.4 14880372       786.
##  7 Afghanistan Asia       1982     39.9 12881816       978.
##  8 Afghanistan Asia       1987     40.8 13867957       852.
##  9 Afghanistan Asia       1992     41.7 16317921       649.
## 10 Afghanistan Asia       1997     41.8 22227415       635.
## # ... with 1,694 more rows
```

```r
structure(gapminder)
```

```
## # A tibble: 1,704 x 6
##    country     continent  year lifeExp      pop gdpPercap
##    <fct>       <fct>     <int>   <dbl>    <int>     <dbl>
##  1 Afghanistan Asia       1952    28.8  8425333      779.
##  2 Afghanistan Asia       1957    30.3  9240934      821.
##  3 Afghanistan Asia       1962    32.0 10267083      853.
##  4 Afghanistan Asia       1967    34.0 11537966      836.
##  5 Afghanistan Asia       1972    36.1 13079460      740.
##  6 Afghanistan Asia       1977    38.4 14880372      786.
##  7 Afghanistan Asia       1982    39.9 12881816      978.
##  8 Afghanistan Asia       1987    40.8 13867957      852.
##  9 Afghanistan Asia       1992    41.7 16317921      649.
## 10 Afghanistan Asia       1997    41.8 22227415      635.
## # ... with 1,694 more rows
```
…
```r
#so im looking at the data it looks fine to work with, I think i'll just filter out NA's and see what happens first
```


```r
gapminder_working<-gapminder%>%
  filter(gapminder!="NA")
gapminder_working
```

```
## # A tibble: 1,704 x 6
##    country     continent  year lifeExp      pop gdpPercap
##    <fct>       <fct>     <int>   <dbl>    <int>     <dbl>
##  1 Afghanistan Asia       1952    28.8  8425333      779.
##  2 Afghanistan Asia       1957    30.3  9240934      821.
##  3 Afghanistan Asia       1962    32.0 10267083      853.
##  4 Afghanistan Asia       1967    34.0 11537966      836.
##  5 Afghanistan Asia       1972    36.1 13079460      740.
##  6 Afghanistan Asia       1977    38.4 14880372      786.
##  7 Afghanistan Asia       1982    39.9 12881816      978.
##  8 Afghanistan Asia       1987    40.8 13867957      852.
##  9 Afghanistan Asia       1992    41.7 16317921      649.
## 10 Afghanistan Asia       1997    41.8 22227415      635.
## # ... with 1,694 more rows
```
…
```
## `summarise()` ungrouping output (override with `.groups` argument)
```

```
## # A tibble: 142 x 2
##    country          growth
##    <fct>             <int>
##  1 China         762419569
##  2 India         738396331
##  3 United States 143586947
##  4 Indonesia     141495000
##  5 Brazil        133408087
##  6 Pakistan      127924057
##  7 Bangladesh    103561480
##  8 Nigeria       101912068
##  9 Mexico         78556574
## 10 Philippines    68638596
## # ... with 132 more rows
```
…
```
## `summarise()` regrouping output by 'country' (override with `.groups` argument)
```

```
## # A tibble: 284 x 2
## # Groups:   country [142]
##    country          growth_gdp
##    <fct>                 <dbl>
##  1 Singapore            44828.
##  2 Norway               39262.
##  3 Hong Kong, China     36671.
##  4 Ireland              35466.
##  5 Austria              29989.
##  6 United States        28961.
##  7 Iceland              28913.
##  8 Japan                28439.
##  9 Netherlands          27856.
## 10 Taiwan               27511.
## # ... with 274 more rows
```
…
```
## `summarise()` regrouping output by 'country' (override with `.groups` argument)
```

```
## Selecting by growth_gdp
```

```
## # A tibble: 284 x 2
## # Groups:   country [142]
##    country          growth_gdp
##    <fct>                 <dbl>
##  1 Singapore            44828.
##  2 Norway               39262.
##  3 Hong Kong, China     36671.
##  4 Ireland              35466.
##  5 Austria              29989.
##  6 United States        28961.
##  7 Iceland              28913.
##  8 Japan                28439.
##  9 Netherlands          27856.
## 10 Taiwan               27511.
## # ... with 274 more rows
```
…
