…
```
## -- Conflicts ------------------------------------------ tidyverse_conflicts() --
## x dplyr::filter() masks stats::filter()
## x dplyr::lag()    masks stats::lag()
```

## nycflights13

```r
flights
```

```
## # A tibble: 336,776 x 19
##     year month   day dep_time sched_dep_time dep_delay arr_time sched_arr_time
##    <int> <int> <int>    <int>          <int>     <dbl>    <int>          <int>
##  1  2013     1     1      517            515         2      830            819
##  2  2013     1     1      533            529         4      850            830
##  3  2013     1     1      542            540         2      923            850
##  4  2013     1     1      544            545        -1     1004           1022
##  5  2013     1     1      554            600        -6      812            837
##  6  2013     1     1      554            558        -4      740            728
##  7  2013     1     1      555            600        -5      913            854
##  8  2013     1     1      557            600        -3      709            723
##  9  2013     1     1      557            600        -3      838            846
## 10  2013     1     1      558            600        -2      753            745
## # ... with 336,766 more rows, and 11 more variables: arr_delay <dbl>,
## #   carrier <chr>, flight <int>, tailnum <chr>, origin <chr>, dest <chr>,
## #   air_time <dbl>, distance <dbl>, hour <dbl>, minute <dbl>, time_hour <dttm>
```

## Filter
Flights between JFK and SFO airports.

```r
flights %>% 
  filter(origin=="JFK" & dest=="SFO")
```

```
## # A tibble: 8,204 x 19
##     year month   day dep_time sched_dep_time dep_delay arr_time sched_arr_time
##    <int> <int> <int>    <int>          <int>     <dbl>    <int>          <int>
##  1  2013     1     1      611            600        11      945            931
##  2  2013     1     1      655            700        -5     1037           1045
##  3  2013     1     1      729            730        -1     1049           1115
##  4  2013     1     1      734            737        -3     1047           1113
##  5  2013     1     1      745            745         0     1135           1125
##  6  2013     1     1      803            800         3     1132           1144
##  7  2013     1     1     1029           1030        -1     1427           1355
##  8  2013     1     1     1031           1030         1     1353           1415
##  9  2013     1     1     1112           1100        12     1440           1438
## 10  2013     1     1     1124           1100        24     1435           1431
## # ... with 8,194 more rows, and 11 more variables: arr_delay <dbl>,
## #   carrier <chr>, flight <int>, tailnum <chr>, origin <chr>, dest <chr>,
## #   air_time <dbl>, distance <dbl>, hour <dbl>, minute <dbl>, time_hour <dttm>
```
…
