…
5. Let's switch to the wolves data. Load the data and evaluate its structure.

```r
structure(wolves)
```

```
## # A tibble: 1,986 x 23
##    pop     year age.cat sex   color   lat  long habitat human pop.density
##    <chr>  <dbl> <chr>   <chr> <chr> <dbl> <dbl>   <dbl> <dbl>       <dbl>
##  1 AK.PEN  2006 S       F     G      57.0 -158.    254.  10.4           8
##  2 AK.PEN  2006 S       M     G      57.0 -158.    254.  10.4           8
##  3 AK.PEN  2006 A       F     G      57.0 -158.    254.  10.4           8
##  4 AK.PEN  2006 S       M     B      57.0 -158.    254.  10.4           8
##  5 AK.PEN  2006 A       M     B      57.0 -158.    254.  10.4           8
##  6 AK.PEN  2006 A       M     G      57.0 -158.    254.  10.4           8
##  7 AK.PEN  2006 A       F     G      57.0 -158.    254.  10.4           8
##  8 AK.PEN  2006 P       M     G      57.0 -158.    254.  10.4           8
##  9 AK.PEN  2006 S       F     G      57.0 -158.    254.  10.4           8
## 10 AK.PEN  2006 P       M     G      57.0 -158.    254.  10.4           8
## # ... with 1,976 more rows, and 13 more variables: pack.size <dbl>,
## #   standard.habitat <dbl>, standard.human <dbl>, standard.pop <dbl>,
## #   standard.packsize <dbl>, standard.latitude <dbl>, standard.longitude <dbl>,
## #   cav.binary <dbl>, cdv.binary <dbl>, cpv.binary <dbl>, chv.binary <dbl>,
## #   neo.binary <dbl>, toxo.binary <dbl>
```
…
