…
```r
structure(homerange)
```

```
## # A tibble: 569 x 24
##    taxon common.name class order family genus species primarymethod N    
##    <chr> <chr>       <chr> <chr> <chr>  <chr> <chr>   <chr>         <chr>
##  1 lake~ american e~ acti~ angu~ angui~ angu~ rostra~ telemetry     16   
##  2 rive~ blacktail ~ acti~ cypr~ catos~ moxo~ poecil~ mark-recaptu~ <NA> 
##  3 rive~ central st~ acti~ cypr~ cypri~ camp~ anomal~ mark-recaptu~ 20   
##  4 rive~ rosyside d~ acti~ cypr~ cypri~ clin~ fundul~ mark-recaptu~ 26   
##  5 rive~ longnose d~ acti~ cypr~ cypri~ rhin~ catara~ mark-recaptu~ 17   
##  6 rive~ muskellunge acti~ esoc~ esoci~ esox  masqui~ telemetry     5    
##  7 mari~ pollack     acti~ gadi~ gadid~ poll~ pollac~ telemetry     2    
##  8 mari~ saithe      acti~ gadi~ gadid~ poll~ virens  telemetry     2    
##  9 mari~ lined surg~ acti~ perc~ acant~ acan~ lineat~ direct obser~ <NA> 
## 10 mari~ orangespin~ acti~ perc~ acant~ naso  litura~ telemetry     8    
## # ... with 559 more rows, and 15 more variables: mean.mass.g <dbl>,
## #   log10.mass <dbl>, alternative.mass.reference <chr>, mean.hra.m2 <dbl>,
## #   log10.hra <dbl>, hra.reference <chr>, realm <chr>, thermoregulation <chr>,
## #   locomotion <chr>, trophic.guild <chr>, dimension <chr>, preymass <dbl>,
## #   log10.preymass <dbl>, PPMR <dbl>, prey.size.reference <chr>
```

```r
homerange
```

```
## # A tibble: 569 x 24
##    taxon common.name class order family genus species primarymethod N    
##    <chr> <chr>       <chr> <chr> <chr>  <chr> <chr>   <chr>         <chr>
##  1 lake~ american e~ acti~ angu~ angui~ angu~ rostra~ telemetry     16   
##  2 rive~ blacktail ~ acti~ cypr~ catos~ moxo~ poecil~ mark-recaptu~ <NA> 
##  3 rive~ central st~ acti~ cypr~ cypri~ camp~ anomal~ mark-recaptu~ 20   
##  4 rive~ rosyside d~ acti~ cypr~ cypri~ clin~ fundul~ mark-recaptu~ 26   
##  5 rive~ longnose d~ acti~ cypr~ cypri~ rhin~ catara~ mark-recaptu~ 17   
##  6 rive~ muskellunge acti~ esoc~ esoci~ esox  masqui~ telemetry     5    
##  7 mari~ pollack     acti~ gadi~ gadid~ poll~ pollac~ telemetry     2    
##  8 mari~ saithe      acti~ gadi~ gadid~ poll~ virens  telemetry     2    
##  9 mari~ lined surg~ acti~ perc~ acant~ acan~ lineat~ direct obser~ <NA> 
## 10 mari~ orangespin~ acti~ perc~ acant~ naso  litura~ telemetry     8    
## # ... with 559 more rows, and 15 more variables: mean.mass.g <dbl>,
## #   log10.mass <dbl>, alternative.mass.reference <chr>, mean.hra.m2 <dbl>,
## #   log10.hra <dbl>, hra.reference <chr>, realm <chr>, thermoregulation <chr>,
## #   locomotion <chr>, trophic.guild <chr>, dimension <chr>, preymass <dbl>,
## #   log10.preymass <dbl>, PPMR <dbl>, prey.size.reference <chr>
```
…
**4. What taxa are represented in the `homerange` data frame? Make a new data frame `taxa` that is restricted to taxon, common name, class, order, family, genus, species.**  

```r
taxa <- homerange %>% select(taxon,common.name,class,order,family,genus,species)
structure(taxa)
```

```
## # A tibble: 569 x 7
##    taxon     common.name       class      order     family    genus    species  
##    <chr>     <chr>             <chr>      <chr>     <chr>     <chr>    <chr>    
##  1 lake fis~ american eel      actinopte~ anguilli~ anguilli~ anguilla rostrata 
##  2 river fi~ blacktail redhor~ actinopte~ cyprinif~ catostom~ moxosto~ poecilura
##  3 river fi~ central stonerol~ actinopte~ cyprinif~ cyprinid~ campost~ anomalum 
##  4 river fi~ rosyside dace     actinopte~ cyprinif~ cyprinid~ clinost~ funduloi~
##  5 river fi~ longnose dace     actinopte~ cyprinif~ cyprinid~ rhinich~ cataract~
##  6 river fi~ muskellunge       actinopte~ esocifor~ esocidae  esox     masquino~
##  7 marine f~ pollack           actinopte~ gadiform~ gadidae   pollach~ pollachi~
##  8 marine f~ saithe            actinopte~ gadiform~ gadidae   pollach~ virens   
##  9 marine f~ lined surgeonfish actinopte~ percifor~ acanthur~ acanthu~ lineatus 
## 10 marine f~ orangespine unic~ actinopte~ percifor~ acanthur~ naso     lituratus
## # ... with 559 more rows
```
…
```
## trophic_guild
## carnivore herbivore 
##       342       227
```

**7. Make two new data frames, one which is restricted to carnivores and another that is restricted to herbivores.**  

```r
herbi<- filter(homerange, trophic.guild == "herbivore")
herbi
```

```
## # A tibble: 227 x 24
##    taxon common.name class order family genus species primarymethod N    
##    <chr> <chr>       <chr> <chr> <chr>  <chr> <chr>   <chr>         <chr>
##  1 mari~ lined surg~ acti~ perc~ acant~ acan~ lineat~ direct obser~ <NA> 
##  2 mari~ orangespin~ acti~ perc~ acant~ naso  litura~ telemetry     8    
##  3 mari~ bluespine ~ acti~ perc~ acant~ naso  unicor~ telemetry     7    
##  4 mari~ redlip ble~ acti~ perc~ blenn~ ophi~ atlant~ direct obser~ 20   
##  5 mari~ bermuda ch~ acti~ perc~ kypho~ kyph~ sectat~ telemetry     11   
##  6 mari~ cherubfish  acti~ perc~ pomac~ cent~ argi    direct obser~ <NA> 
##  7 mari~ damselfish  acti~ perc~ pomac~ chro~ chromis direct obser~ <NA> 
##  8 mari~ twinspot d~ acti~ perc~ pomac~ chry~ biocel~ direct obser~ 18   
##  9 mari~ wards dams~ acti~ perc~ pomac~ poma~ wardi   direct obser~ <NA> 
## 10 mari~ australian~ acti~ perc~ pomac~ steg~ apical~ direct obser~ <NA> 
## # ... with 217 more rows, and 15 more variables: mean.mass.g <dbl>,
## #   log10.mass <dbl>, alternative.mass.reference <chr>, mean.hra.m2 <dbl>,
## #   log10.hra <dbl>, hra.reference <chr>, realm <chr>, thermoregulation <chr>,
## #   locomotion <chr>, trophic.guild <chr>, dimension <chr>, preymass <dbl>,
## #   log10.preymass <dbl>, PPMR <dbl>, prey.size.reference <chr>
```

```r
carni<-filter(homerange,trophic.guild == "carnivore")
carni
```

```
## # A tibble: 342 x 24
##    taxon common.name class order family genus species primarymethod N    
##    <chr> <chr>       <chr> <chr> <chr>  <chr> <chr>   <chr>         <chr>
##  1 lake~ american e~ acti~ angu~ angui~ angu~ rostra~ telemetry     16   
##  2 rive~ blacktail ~ acti~ cypr~ catos~ moxo~ poecil~ mark-recaptu~ <NA> 
##  3 rive~ central st~ acti~ cypr~ cypri~ camp~ anomal~ mark-recaptu~ 20   
##  4 rive~ rosyside d~ acti~ cypr~ cypri~ clin~ fundul~ mark-recaptu~ 26   
##  5 rive~ longnose d~ acti~ cypr~ cypri~ rhin~ catara~ mark-recaptu~ 17   
##  6 rive~ muskellunge acti~ esoc~ esoci~ esox  masqui~ telemetry     5    
##  7 mari~ pollack     acti~ gadi~ gadid~ poll~ pollac~ telemetry     2    
##  8 mari~ saithe      acti~ gadi~ gadid~ poll~ virens  telemetry     2    
##  9 mari~ giant trev~ acti~ perc~ caran~ cara~ ignobi~ telemetry     4    
## 10 lake~ rock bass   acti~ perc~ centr~ ambl~ rupest~ mark-recaptu~ 16   
## # ... with 332 more rows, and 15 more variables: mean.mass.g <dbl>,
## #   log10.mass <dbl>, alternative.mass.reference <chr>, mean.hra.m2 <dbl>,
## #   log10.hra <dbl>, hra.reference <chr>, realm <chr>, thermoregulation <chr>,
## #   locomotion <chr>, trophic.guild <chr>, dimension <chr>, preymass <dbl>,
## #   log10.preymass <dbl>, PPMR <dbl>, prey.size.reference <chr>
```
…
```r
#this is now sorted such that log10.mass is ordered by descending order
```
#The largest deer would be alces alces otherwise known as Moose or Elk


**10. As measured by the data, which snake species has the smallest homerange? Show all of your work, please. Look this species up online and tell me about it!** **Snake is found in taxon column**    

```r
snake<-filter(homerange, taxon =="snakes")
snake
```

```
## # A tibble: 41 x 24
##    taxon common.name class order family genus species primarymethod N    
##    <chr> <chr>       <chr> <chr> <chr>  <chr> <chr>   <chr>         <chr>
##  1 snak~ western wo~ rept~ squa~ colub~ carp~ vermis  radiotag      1    
##  2 snak~ eastern wo~ rept~ squa~ colub~ carp~ viridis radiotag      10   
##  3 snak~ racer       rept~ squa~ colub~ colu~ constr~ telemetry     15   
##  4 snak~ yellow bel~ rept~ squa~ colub~ colu~ constr~ telemetry     12   
##  5 snak~ ringneck s~ rept~ squa~ colub~ diad~ puncta~ mark-recaptu~ <NA> 
##  6 snak~ eastern in~ rept~ squa~ colub~ drym~ couperi telemetry     1    
##  7 snak~ great plai~ rept~ squa~ colub~ elap~ guttat~ telemetry     12   
##  8 snak~ western ra~ rept~ squa~ colub~ elap~ obsole~ telemetry     18   
##  9 snak~ hognose sn~ rept~ squa~ colub~ hete~ platir~ telemetry     8    
## 10 snak~ European w~ rept~ squa~ colub~ hier~ viridi~ telemetry     32   
## # ... with 31 more rows, and 15 more variables: mean.mass.g <dbl>,
## #   log10.mass <dbl>, alternative.mass.reference <chr>, mean.hra.m2 <dbl>,
## #   log10.hra <dbl>, hra.reference <chr>, realm <chr>, thermoregulation <chr>,
## #   locomotion <chr>, trophic.guild <chr>, dimension <chr>, preymass <dbl>,
## #   log10.preymass <dbl>, PPMR <dbl>, prey.size.reference <chr>
```

```r
snake_data <- snake%>%select("mean.hra.m2","mean.mass.g", "log10.mass", "family", "genus", "species")
```



```r
snake_data[order(snake_data$mean.hra.m2), descending =TRUE]
```

```
## # A tibble: 41 x 6
##    mean.hra.m2 mean.mass.g log10.mass family     genus       species     
##          <dbl>       <dbl>      <dbl> <chr>      <chr>       <chr>       
##  1        200        17.0       1.23  viperidae  bitis       schneideri  
##  2        253         3.65      0.562 colubridae carphopis   viridis     
##  3        600        21.5       1.33  colubridae thamnophis  butleri     
##  4        700         3.46      0.539 colubridae carphopis   vermis      
##  5       2400        97.4       1.99  viperidae  vipera      latastei    
##  6       2614.      197.        2.29  viperidae  gloydius    shedaoensis 
##  7       6476         9         0.954 colubridae diadophis   punctatus   
##  8      10655       188         2.27  viperidae  agkistrodon piscivorous 
##  9      15400        62.5       1.80  colubridae oocatochus  rufodorsatus
## 10      17400       375         2.57  colubridae pituophis   catenifer   
## # ... with 31 more rows
```
…
