…
The `clean_names` function takes care of everything in one line! Now that's a superpower!

```r
superhero_powers <- janitor::clean_names(superhero_powers)
#names(superhero_powers)
superhero_powers
```

```
## # A tibble: 667 x 168
##    hero_names agility accelerated_hea~ lantern_power_r~ dimensional_awa~
##    <chr>      <lgl>   <lgl>            <lgl>            <lgl>           
##  1 3-D Man    TRUE    FALSE            FALSE            FALSE           
##  2 A-Bomb     FALSE   TRUE             FALSE            FALSE           
##  3 Abe Sapien TRUE    TRUE             FALSE            FALSE           
##  4 Abin Sur   FALSE   FALSE            TRUE             FALSE           
##  5 Abominati~ FALSE   TRUE             FALSE            FALSE           
##  6 Abraxas    FALSE   FALSE            FALSE            TRUE            
##  7 Absorbing~ FALSE   FALSE            FALSE            FALSE           
##  8 Adam Monr~ FALSE   TRUE             FALSE            FALSE           
##  9 Adam Stra~ FALSE   FALSE            FALSE            FALSE           
## 10 Agent Bob  FALSE   FALSE            FALSE            FALSE           
## # ... with 657 more rows, and 163 more variables: cold_resistance <lgl>,
## #   durability <lgl>, stealth <lgl>, energy_absorption <lgl>, flight <lgl>,
## #   danger_sense <lgl>, underwater_breathing <lgl>, marksmanship <lgl>,
## #   weapons_master <lgl>, power_augmentation <lgl>, animal_attributes <lgl>,
## #   longevity <lgl>, intelligence <lgl>, super_strength <lgl>,
## #   cryokinesis <lgl>, telepathy <lgl>, energy_armor <lgl>,
## #   energy_blasts <lgl>, duplication <lgl>, size_changing <lgl>,
## #   density_control <lgl>, stamina <lgl>, astral_travel <lgl>,
## #   audio_control <lgl>, dexterity <lgl>, omnitrix <lgl>, super_speed <lgl>,
…
2. Notice that we have some neutral superheros! Who are they?

```r
superhero_info %>%
  select(name,alignment) %>%
  filter(alignment=="neutral")
```

```
## # A tibble: 24 x 2
##    name         alignment
##    <chr>        <chr>    
##  1 Bizarro      neutral  
##  2 Black Flash  neutral  
##  3 Captain Cold neutral  
##  4 Copycat      neutral  
##  5 Deadpool     neutral  
##  6 Deathstroke  neutral  
##  7 Etrigan      neutral  
##  8 Galactus     neutral  
##  9 Gladiator    neutral  
## 10 Indigo       neutral  
## # ... with 14 more rows
```

## `superhero_info`
3. Let's say we are only interested in the variables name, alignment, and "race". How would you isolate these variables from `superhero_info`?

```r
name_ali_race<-superhero_info %>%
  select(name,alignment,race)
name_ali_race
```

```
## # A tibble: 734 x 3
##    name          alignment race             
##    <chr>         <chr>     <chr>            
##  1 A-Bomb        good      Human            
##  2 Abe Sapien    good      Icthyo Sapien    
##  3 Abin Sur      good      Ungaran          
##  4 Abomination   bad       Human / Radiation
##  5 Abraxas       bad       Cosmic Entity    
##  6 Absorbing Man bad       Human            
##  7 Adam Monroe   good      <NA>             
##  8 Adam Strange  good      Human            
##  9 Agent 13      good      <NA>             
## 10 Agent Bob     good      Human            
## # ... with 724 more rows
```

## Not Human
4. List all of the superheros that are not human.

```r
name_ali_race %>%
  select(name,alignment,race) %>%
  filter(race != "Human")
```

```
## # A tibble: 222 x 3
##    name         alignment race             
##    <chr>        <chr>     <chr>            
##  1 Abe Sapien   good      Icthyo Sapien    
##  2 Abin Sur     good      Ungaran          
##  3 Abomination  bad       Human / Radiation
##  4 Abraxas      bad       Cosmic Entity    
##  5 Ajax         bad       Cyborg           
##  6 Alien        bad       Xenomorph XX121  
##  7 Amazo        bad       Android          
##  8 Angel        good      Vampire          
##  9 Angel Dust   good      Mutant           
## 10 Anti-Monitor bad       God / Eternal    
## # ... with 212 more rows
```

## Good and Evil
5. Let's make two different data frames, one focused on the "good guys" and another focused on the "bad guys".

```r
good_guys<-superhero_info %>%
  select(name,alignment,race,height,gender)%>%
  filter(alignment=="good")
good_guys
```

```
## # A tibble: 496 x 5
##    name         alignment race          height gender
##    <chr>        <chr>     <chr>          <dbl> <chr> 
##  1 A-Bomb       good      Human            203 Male  
##  2 Abe Sapien   good      Icthyo Sapien    191 Male  
##  3 Abin Sur     good      Ungaran          185 Male  
##  4 Adam Monroe  good      <NA>              NA Male  
##  5 Adam Strange good      Human            185 Male  
##  6 Agent 13     good      <NA>             173 Female
##  7 Agent Bob    good      Human            178 Male  
##  8 Agent Zero   good      <NA>             191 Male  
##  9 Alan Scott   good      <NA>             180 Male  
## 10 Alex Woolsly good      <NA>              NA Male  
## # ... with 486 more rows
```

```r
bad_guys<-superhero_info%>%
  select(name,alignment,race,height,gender)%>%
  filter(alignment=="bad")
bad_guys
```

```
## # A tibble: 207 x 5
##    name          alignment race              height gender
##    <chr>         <chr>     <chr>              <dbl> <chr> 
##  1 Abomination   bad       Human / Radiation    203 Male  
##  2 Abraxas       bad       Cosmic Entity         NA Male  
##  3 Absorbing Man bad       Human                193 Male  
##  4 Air-Walker    bad       <NA>                 188 Male  
##  5 Ajax          bad       Cyborg               193 Male  
##  6 Alex Mercer   bad       Human                 NA Male  
##  7 Alien         bad       Xenomorph XX121      244 Male  
##  8 Amazo         bad       Android              257 Male  
##  9 Ammo          bad       Human                188 Male  
## 10 Angela        bad       <NA>                  NA Female
## # ... with 197 more rows
```
…
8. Among the bad guys, who are the male humans over 200 inches in height?

```r
bad_guys%>%
  select(name,height)%>%
  filter(height>=200)
```

```
## # A tibble: 25 x 2
##    name           height
##    <chr>           <dbl>
##  1 Abomination       203
##  2 Alien             244
##  3 Amazo             257
##  4 Apocalypse        213
##  5 Bane              203
##  6 Bloodaxe          218
##  7 Darkseid          267
##  8 Doctor Doom       201
##  9 Doctor Doom II    201
## 10 Doomsday          244
## # ... with 15 more rows
```
…
```r
baldiess_good<-baldiess%>%
  select(name,alignment,hair_color)%>%
  filter(alignment == "good")
baldiess_good
```

```
## # A tibble: 37 x 3
##    name            alignment hair_color
##    <chr>           <chr>     <chr>     
##  1 A-Bomb          good      No Hair   
##  2 Abe Sapien      good      No Hair   
##  3 Abin Sur        good      No Hair   
##  4 Beta Ray Bill   good      No Hair   
##  5 Bishop          good      No Hair   
##  6 Black Lightning good      No Hair   
##  7 Blaquesmith     good      No Hair   
##  8 Bloodhawk       good      No Hair   
##  9 Crimson Dynamo  good      No Hair   
## 10 Donatello       good      No Hair   
## # ... with 27 more rows
```

```r
baldies_bad<-baldiess%>%
  select(name,alignment,hair_color)%>%
  filter(alignment == "bad")
baldies_bad
```

```
## # A tibble: 35 x 3
##    name          alignment hair_color
##    <chr>         <chr>     <chr>     
##  1 Abomination   bad       No Hair   
##  2 Absorbing Man bad       No Hair   
##  3 Alien         bad       No Hair   
##  4 Annihilus     bad       No Hair   
##  5 Anti-Monitor  bad       No Hair   
##  6 Black Manta   bad       No Hair   
##  7 Bloodwraith   bad       No Hair   
##  8 Brainiac      bad       No Hair   
##  9 Darkseid      bad       No Hair   
## 10 Darth Vader   bad       No Hair   
## # ... with 25 more rows
```

10. Let's explore who the really "big" superheros are. In the `superhero_info` data, which have a height over 200 or weight over 300?

```r
big_superheroes<-superhero_info%>%
  select(name,alignment,height,weight)%>%
  filter(height>200|weight>300)
big_superheroes
```

```
## # A tibble: 65 x 4
##    name          alignment height weight
##    <chr>         <chr>      <dbl>  <dbl>
##  1 A-Bomb        good         203    441
##  2 Abomination   bad          203    441
##  3 Alien         bad          244    169
##  4 Amazo         bad          257    173
##  5 Ant-Man       good         211    122
##  6 Anti-Venom    <NA>         229    358
##  7 Apocalypse    bad          213    135
##  8 Bane          bad          203    180
##  9 Beta Ray Bill good         201    216
## 10 Bloodaxe      bad          218    495
## # ... with 55 more rows
```

11. Just to be clear on the `|` operator,  have a look at the superheros over 300 in height...

```r
only_by_weight_super<-superhero_info%>%
  select(name,alignment,weight)%>%
  filter(weight>300)
only_by_weight_super  
```

```
## # A tibble: 28 x 3
##    name               alignment weight
##    <chr>              <chr>      <dbl>
##  1 A-Bomb             good         441
##  2 Abomination        bad          441
##  3 Anti-Venom         <NA>         358
##  4 Bloodaxe           bad          495
##  5 Darkseid           bad          817
##  6 Destroyer          bad          383
##  7 Doomsday           bad          412
##  8 Drax the Destroyer good         306
##  9 Giganta            bad          630
## 10 Hulk               good         630
## # ... with 18 more rows
```
…
## Height to Weight Ratio
13. It's easy to be strong when you are heavy and tall, but who is heavy and short? Which superheros have the highest height to weight ratio?

```r
superhero_info%>%
  mutate(height_weight_ratio=height/weight)%>%
  select(name,height_weight_ratio)%>%
  arrange(desc(height_weight_ratio))
```

```
## # A tibble: 734 x 2
##    name            height_weight_ratio
##    <chr>                         <dbl>
##  1 Groot                        175.  
##  2 Galactus                      54.8 
##  3 Fin Fang Foom                 54.2 
##  4 Longshot                       5.22
##  5 Jack-Jack                      5.07
##  6 Rocket Raccoon                 4.88
##  7 Dash                           4.52
##  8 Howard the Duck                4.39
##  9 Swarm                          4.17
## 10 Yoda                           3.88
## # ... with 724 more rows
```

## `superhero_powers`
Have a quick look at the `superhero_powers` data frame.  

```r
structure(superhero_powers)
```

```
## # A tibble: 667 x 168
##    hero_names agility accelerated_hea~ lantern_power_r~ dimensional_awa~
##    <chr>      <lgl>   <lgl>            <lgl>            <lgl>           
##  1 3-D Man    TRUE    FALSE            FALSE            FALSE           
##  2 A-Bomb     FALSE   TRUE             FALSE            FALSE           
##  3 Abe Sapien TRUE    TRUE             FALSE            FALSE           
##  4 Abin Sur   FALSE   FALSE            TRUE             FALSE           
##  5 Abominati~ FALSE   TRUE             FALSE            FALSE           
##  6 Abraxas    FALSE   FALSE            FALSE            TRUE            
##  7 Absorbing~ FALSE   FALSE            FALSE            FALSE           
##  8 Adam Monr~ FALSE   TRUE             FALSE            FALSE           
##  9 Adam Stra~ FALSE   FALSE            FALSE            FALSE           
## 10 Agent Bob  FALSE   FALSE            FALSE            FALSE           
## # ... with 657 more rows, and 163 more variables: cold_resistance <lgl>,
## #   durability <lgl>, stealth <lgl>, energy_absorption <lgl>, flight <lgl>,
## #   danger_sense <lgl>, underwater_breathing <lgl>, marksmanship <lgl>,
## #   weapons_master <lgl>, power_augmentation <lgl>, animal_attributes <lgl>,
## #   longevity <lgl>, intelligence <lgl>, super_strength <lgl>,
## #   cryokinesis <lgl>, telepathy <lgl>, energy_armor <lgl>,
## #   energy_blasts <lgl>, duplication <lgl>, size_changing <lgl>,
## #   density_control <lgl>, stamina <lgl>, astral_travel <lgl>,
## #   audio_control <lgl>, dexterity <lgl>, omnitrix <lgl>, super_speed <lgl>,
…
14. How many superheros have a combination of accelerated healing, durability, and super strength?

```r
wombo_combo<-superhero_powers%>%
  select(hero_names,accelerated_healing,durability,super_strength)%>%
  filter(accelerated_healing=="TRUE",durability=="TRUE",super_strength=="TRUE")
wombo_combo
```

```
## # A tibble: 97 x 4
##    hero_names   accelerated_healing durability super_strength
##    <chr>        <lgl>               <lgl>      <lgl>         
##  1 A-Bomb       TRUE                TRUE       TRUE          
##  2 Abe Sapien   TRUE                TRUE       TRUE          
##  3 Angel        TRUE                TRUE       TRUE          
##  4 Anti-Monitor TRUE                TRUE       TRUE          
##  5 Anti-Venom   TRUE                TRUE       TRUE          
##  6 Aquaman      TRUE                TRUE       TRUE          
##  7 Arachne      TRUE                TRUE       TRUE          
##  8 Archangel    TRUE                TRUE       TRUE          
##  9 Ardina       TRUE                TRUE       TRUE          
## 10 Ares         TRUE                TRUE       TRUE          
## # ... with 87 more rows
```

## `kinesis`
15. We are only interested in the superheros that do some kind of "kinesis". How would we isolate them from the `superhero_powers` data?

```r
tele_kinesis<-superhero_powers%>%
  select(hero_names,ends_with("kinesis"))%>%
  filter_all(any_vars(.=="TRUE"))
tele_kinesis
```

```
## # A tibble: 112 x 10
##    hero_names cryokinesis electrokinesis telekinesis hyperkinesis hypnokinesis
##    <chr>      <lgl>       <lgl>          <lgl>       <lgl>        <lgl>       
##  1 Alan Scott FALSE       FALSE          FALSE       FALSE        TRUE        
##  2 Amazo      TRUE        FALSE          FALSE       FALSE        FALSE       
##  3 Apocalypse FALSE       FALSE          TRUE        FALSE        FALSE       
##  4 Aqualad    TRUE        FALSE          FALSE       FALSE        FALSE       
##  5 Beyonder   FALSE       FALSE          TRUE        FALSE        FALSE       
##  6 Bizarro    TRUE        FALSE          FALSE       FALSE        TRUE        
##  7 Black Abb~ FALSE       FALSE          TRUE        FALSE        FALSE       
##  8 Black Adam FALSE       FALSE          TRUE        FALSE        FALSE       
##  9 Black Lig~ FALSE       TRUE           FALSE       FALSE        FALSE       
## 10 Black Mam~ FALSE       FALSE          FALSE       FALSE        TRUE        
## # ... with 102 more rows, and 4 more variables: thirstokinesis <lgl>,
## #   biokinesis <lgl>, terrakinesis <lgl>, vitakinesis <lgl>
```
…
