…
#I think structure is the most informative for me at the moment

```r
structure(UC_admit)
```

```
## # A tibble: 2,160 x 6
##    Campus Academic_Yr Category   Ethnicity        `Perc FR` FilteredCountFR
##    <chr>        <dbl> <chr>      <chr>            <chr>               <dbl>
##  1 Davis         2019 Applicants International    21.16%              16522
##  2 Davis         2019 Applicants Unknown          2.51%                1959
##  3 Davis         2019 Applicants White            18.39%              14360
##  4 Davis         2019 Applicants Asian            30.76%              24024
##  5 Davis         2019 Applicants Chicano/Latino   22.44%              17526
##  6 Davis         2019 Applicants American Indian  0.35%                 277
##  7 Davis         2019 Applicants African American 4.39%                3425
##  8 Davis         2019 Applicants All              100.00%             78093
##  9 Davis         2018 Applicants International    19.87%              15507
## 10 Davis         2018 Applicants Unknown          2.83%                2208
## # ... with 2,150 more rows
```



```r
UC_admit_td%>%
  group_by(ethnicity)%>%
  summarise(campus,academic_yr,category,perc_fr)
```

```
## `summarise()` has grouped output by 'ethnicity'. You can override using the `.groups` argument.
```

```
## # A tibble: 1,620 x 5
## # Groups:   ethnicity [6]
##    ethnicity        campus academic_yr category   perc_fr
##    <chr>            <chr>        <dbl> <fct>      <chr>  
##  1 African American Davis         2019 Applicants 4.39%  
##  2 African American Davis         2018 Applicants 4.53%  
##  3 African American Davis         2017 Applicants 4.57%  
##  4 African American Davis         2016 Applicants 4.61%  
##  5 African American Davis         2015 Applicants 4.36%  
##  6 African American Davis         2014 Applicants 4.21%  
##  7 African American Davis         2013 Applicants 4.38%  
##  8 African American Davis         2012 Applicants 4.57%  
##  9 African American Davis         2011 Applicants 4.39%  
## 10 African American Davis         2010 Applicants 4.43%  
## # ... with 1,610 more rows
```
…
