…
1. Do an exploratory analysis of the data (your choice). What are the names of the variables, what are the dimensions, are there any NA's, what are the classes of the variables?  

```r
structure(fisheries)
```

```
## # A tibble: 17,692 x 71
##    Country `Common name` `ISSCAAP group#` `ISSCAAP taxono~ `ASFIS species#`
##    <chr>   <chr>                    <dbl> <chr>            <chr>           
##  1 Albania Angelsharks,~               38 Sharks, rays, c~ 10903XXXXX      
##  2 Albania Atlantic bon~               36 Tunas, bonitos,~ 1750100101      
##  3 Albania Barracudas n~               37 Miscellaneous p~ 17710001XX      
##  4 Albania Blue and red~               45 Shrimps, prawns  2280203101      
##  5 Albania Blue whiting~               32 Cods, hakes, ha~ 1480403301      
##  6 Albania Bluefish                    37 Miscellaneous p~ 1702021301      
##  7 Albania Bogue                       33 Miscellaneous c~ 1703926101      
##  8 Albania Caramote pra~               45 Shrimps, prawns  2280100117      
##  9 Albania Catsharks, n~               38 Sharks, rays, c~ 10801003XX      
## 10 Albania Common cuttl~               57 Squids, cuttlef~ 3210200202      
## # ... with 17,682 more rows, and 66 more variables: `ASFIS species name` <chr>,
## #   `FAO major fishing area` <dbl>, Measure <chr>, `1950` <chr>, `1951` <chr>,
## #   `1952` <chr>, `1953` <chr>, `1954` <chr>, `1955` <chr>, `1956` <chr>,
## #   `1957` <chr>, `1958` <chr>, `1959` <chr>, `1960` <chr>, `1961` <chr>,
## #   `1962` <chr>, `1963` <chr>, `1964` <chr>, `1965` <chr>, `1966` <chr>,
## #   `1967` <chr>, `1968` <chr>, `1969` <chr>, `1970` <chr>, `1971` <chr>,
## #   `1972` <chr>, `1973` <chr>, `1974` <chr>, `1975` <chr>, `1976` <chr>,
## #   `1977` <chr>, `1978` <chr>, `1979` <chr>, `1980` <chr>, `1981` <chr>,
## #   `1982` <chr>, `1983` <chr>, `1984` <chr>, `1985` <chr>, `1986` <chr>,
…
2. Use `janitor` to rename the columns and make them easier to use. As part of this cleaning step, change `country`, `isscaap_group_number`, `asfis_species_number`, and `fao_major_fishing_area` to data class factor. 

```r
fisheries<-janitor::clean_names(fisheries)
structure(fisheries)
```

```
## # A tibble: 17,692 x 71
##    country common_name isscaap_group_n~ isscaap_taxonom~ asfis_species_n~
##    <chr>   <chr>                  <dbl> <chr>            <chr>           
##  1 Albania Angelshark~               38 Sharks, rays, c~ 10903XXXXX      
##  2 Albania Atlantic b~               36 Tunas, bonitos,~ 1750100101      
##  3 Albania Barracudas~               37 Miscellaneous p~ 17710001XX      
##  4 Albania Blue and r~               45 Shrimps, prawns  2280203101      
##  5 Albania Blue whiti~               32 Cods, hakes, ha~ 1480403301      
##  6 Albania Bluefish                  37 Miscellaneous p~ 1702021301      
##  7 Albania Bogue                     33 Miscellaneous c~ 1703926101      
##  8 Albania Caramote p~               45 Shrimps, prawns  2280100117      
##  9 Albania Catsharks,~               38 Sharks, rays, c~ 10801003XX      
## 10 Albania Common cut~               57 Squids, cuttlef~ 3210200202      
## # ... with 17,682 more rows, and 66 more variables: asfis_species_name <chr>,
## #   fao_major_fishing_area <dbl>, measure <chr>, x1950 <chr>, x1951 <chr>,
## #   x1952 <chr>, x1953 <chr>, x1954 <chr>, x1955 <chr>, x1956 <chr>,
## #   x1957 <chr>, x1958 <chr>, x1959 <chr>, x1960 <chr>, x1961 <chr>,
## #   x1962 <chr>, x1963 <chr>, x1964 <chr>, x1965 <chr>, x1966 <chr>,
## #   x1967 <chr>, x1968 <chr>, x1969 <chr>, x1970 <chr>, x1971 <chr>,
## #   x1972 <chr>, x1973 <chr>, x1974 <chr>, x1975 <chr>, x1976 <chr>,
## #   x1977 <chr>, x1978 <chr>, x1979 <chr>, x1980 <chr>, x1981 <chr>,
## #   x1982 <chr>, x1983 <chr>, x1984 <chr>, x1985 <chr>, x1986 <chr>,
…
fisheries_tidy$catch <- as.numeric(fisheries_tidy$catch)
```

3. How many countries are represented in the data? Provide a count and list their names.

```r
fisheries%>%
  count(country,sort=T)
```

```
## # A tibble: 204 x 2
##    country                      n
##    <fct>                    <int>
##  1 Spain                      915
##  2 Portugal                   763
##  3 United States of America   627
##  4 Korea, Republic of         620
##  5 Japan                      611
##  6 Russian Federation         523
##  7 Un. Sov. Soc. Rep.         515
##  8 France                     489
##  9 United Kingdom             362
## 10 Taiwan Province of China   310
## # ... with 194 more rows
```



4. Refocus the data only to include only: country, isscaap_taxonomic_group, asfis_species_name, asfis_species_number, year, catch.

```r
refocus_fisheries<-fisheries_tidy%>%
  select(country,isscaap_taxonomic_group,asfis_species_name,asfis_species_number,year,catch)
refocus_fisheries
```

```
## # A tibble: 376,771 x 6
##    country isscaap_taxonomic_g~ asfis_species_na~ asfis_species_num~  year catch
##    <fct>   <chr>                <chr>             <fct>              <dbl> <dbl>
##  1 Albania Sharks, rays, chima~ Squatinidae       10903XXXXX          1995    NA
##  2 Albania Sharks, rays, chima~ Squatinidae       10903XXXXX          1996    53
##  3 Albania Sharks, rays, chima~ Squatinidae       10903XXXXX          1997    20
##  4 Albania Sharks, rays, chima~ Squatinidae       10903XXXXX          1998    31
##  5 Albania Sharks, rays, chima~ Squatinidae       10903XXXXX          1999    30
##  6 Albania Sharks, rays, chima~ Squatinidae       10903XXXXX          2000    30
##  7 Albania Sharks, rays, chima~ Squatinidae       10903XXXXX          2001    16
##  8 Albania Sharks, rays, chima~ Squatinidae       10903XXXXX          2002    79
##  9 Albania Sharks, rays, chima~ Squatinidae       10903XXXXX          2003     1
## 10 Albania Sharks, rays, chima~ Squatinidae       10903XXXXX          2004     4
## # ... with 376,761 more rows
```

5. Based on the asfis_species_number, how many distinct fish species were caught as part of these data?

```r
refocus_fisheries%>%
  count(isscaap_taxonomic_group,asfis_species_name)
```

```
## # A tibble: 1,548 x 3
##    isscaap_taxonomic_group   asfis_species_name          n
##    <chr>                     <chr>                   <int>
##  1 Abalones, winkles, conchs Babylonia spirata           9
##  2 Abalones, winkles, conchs Buccinum undatum          331
##  3 Abalones, winkles, conchs Busycon spp                89
##  4 Abalones, winkles, conchs Concholepas concholepas    85
##  5 Abalones, winkles, conchs Cymbium cymbium             3
##  6 Abalones, winkles, conchs Cymbium spp                20
##  7 Abalones, winkles, conchs Gastropoda                513
##  8 Abalones, winkles, conchs Haliotis gigantea          63
##  9 Abalones, winkles, conchs Haliotis midae             62
## 10 Abalones, winkles, conchs Haliotis rubra            115
## # ... with 1,538 more rows
```
…
```r
fisheries_tidy%>%
  select(country,year,catch)%>%
  filter(year==2000,catch!=0)%>%
  group_by(country)%>%
  summarise(max_catch_2k=max(catch,na.rm=T))%>%
  arrange(desc(max_catch_2k))
```

```
## `summarise()` ungrouping output (override with `.groups` argument)
```

```
## # A tibble: 184 x 2
##    country                  max_catch_2k
##    <fct>                           <dbl>
##  1 China                            9068
##  2 Peru                             5717
##  3 Russian Federation               5065
##  4 Viet Nam                         4945
##  5 Chile                            4299
##  6 United States of America         2438
##  7 Philippines                       999
##  8 Japan                             988
##  9 Bangladesh                        977
## 10 Senegal                           970
## # ... with 174 more rows
```
…
```r
fisheries_tidy%>%
  select(country,catch,year,asfis_species_name)%>%
  filter(year>=1990,year<=2000)%>%
  group_by(country)%>%
  filter(asfis_species_name=="Sardina pilchardus")%>%
  summarise(max_sardines=max(catch,na.rm = T))
```

```
## `summarise()` ungrouping output (override with `.groups` argument)
```

```
## # A tibble: 37 x 2
##    country  max_sardines
##    <fct>           <dbl>
##  1 Albania            50
##  2 Algeria            95
##  3 Belize              9
##  4 Bulgaria           48
##  5 China               8
##  6 Croatia            94
##  7 Cyprus             12
##  8 Denmark            96
##  9 Estonia            20
## 10 France             97
## # ... with 27 more rows
```
…
```
## `summarise()` ungrouping output (override with `.groups` argument)
```

```
## # A tibble: 1,350 x 2
##    asfis_species_name       max_spec_catch
##    <chr>                             <dbl>
##  1 Trichiurus lepturus                8221
##  2 Theragra chalcogramma              8188
##  3 Engraulis ringens                  7981
##  4 Clupea harengus                    7873
##  5 Katsuwonus pelamis                  997
##  6 Micromesistius poutassou            996
##  7 Decapterus spp                      994
##  8 Selaroides leptolepis               993
##  9 Loligo spp                          991
## 10 Oncorhynchus gorbuscha              991
## # ... with 1,340 more rows
```
…
