…
**3. Do some exploratory analysis of the `amphibio` data set. Use the function(s) of your choice. Try to get an idea of how NA's are represented in the data.**  


```r
naniar::miss_var_summary(amphibio)
```

```
## # A tibble: 38 x 3
##    variable n_miss pct_miss
##    <chr>     <int>    <dbl>
##  1 OBS        6776    100  
##  2 Fruits     6774    100. 
##  3 Flowers    6772     99.9
##  4 Seeds      6772     99.9
##  5 Leaves     6752     99.6
##  6 Dry_cold   6735     99.4
##  7 Vert       6657     98.2
##  8 Wet_cold   6625     97.8
##  9 Crepu      6608     97.5
## 10 Dry_warm   6572     97.0
## # ... with 28 more rows
```
…
**6. Use the package `naniar` to produce a summary, including percentages, of missing data in each column for the `amniota` data.**  

```r
naniar::miss_var_summary(amniota_tidy)
```

```
## # A tibble: 36 x 3
##    variable                       n_miss pct_miss
##    <chr>                           <int>    <dbl>
##  1 subspecies                      21322    100  
##  2 female_body_mass_at_maturity_g  21318    100. 
##  3 female_svl_at_maturity_cm       21120     99.1
##  4 fledging_mass_g                 21111     99.0
##  5 male_svl_cm                     21040     98.7
##  6 no_sex_maturity_d               20860     97.8
##  7 egg_width_mm                    20727     97.2
##  8 egg_length_mm                   20702     97.1
##  9 weaning_weight_g                20258     95.0
## 10 female_svl_cm                   20242     94.9
## # ... with 26 more rows
```




**7. Use the package `naniar` to produce a summary, including percentages, of missing data in each column for the `amphibio` data.**

```r
naniar::miss_var_summary(amphibio_tidy)
```

```
## # A tibble: 38 x 3
##    variable n_miss pct_miss
##    <chr>     <int>    <dbl>
##  1 OBS        6776    100  
##  2 Fruits     6774    100. 
##  3 Flowers    6772     99.9
##  4 Seeds      6772     99.9
##  5 Leaves     6752     99.6
##  6 Dry_cold   6735     99.4
##  7 Viv        6722     99.2
##  8 Vert       6657     98.2
##  9 Wet_cold   6625     97.8
## 10 Crepu      6608     97.5
## # ... with 28 more rows
```

```r
amphibio_tidy%>%
purrr::map_df(~ sum(is.na(.))) %>% 
  pivot_longer(everything(),
    names_to= "variables",
    values_to = "num_nas") %>% 
  arrange(desc(num_nas))
```

```
## # A tibble: 38 x 2
##    variables num_nas
##    <chr>       <int>
##  1 OBS          6776
##  2 Fruits       6774
##  3 Flowers      6772
##  4 Seeds        6772
##  5 Leaves       6752
##  6 Dry_cold     6735
##  7 Viv          6722
##  8 Vert         6657
##  9 Wet_cold     6625
## 10 Crepu        6608
## # ... with 28 more rows
```
…
**8. For the `amniota` data, calculate the number of NAs in the `egg_mass_g` column sorted by taxonomic class; i.e. how many NA's are present in the `egg_mass_g` column in birds, mammals, and reptiles? Does this results make sense biologically? How do these results affect your interpretation of NA's?**  


```r
amniota_tidy%>%
  select(class,species,egg_mass_g)%>%
  count(class,species,egg_mass_g,sort = TRUE)
```

```
## # A tibble: 16,576 x 4
##    class    species       egg_mass_g     n
##    <chr>    <chr>              <dbl> <int>
##  1 Reptilia elegans               NA    18
##  2 Reptilia guentheri             NA    16
##  3 Aves     superciliaris         NA    15
##  4 Aves     viridis               NA    15
##  5 Mammalia australis             NA    15
##  6 Reptilia gracilis              NA    15
##  7 Aves     affinis               NA    14
##  8 Mammalia thomasi               NA    14
##  9 Reptilia intermedius           NA    14
## 10 Aves     sclateri              NA    13
## # ... with 16,566 more rows
```
…
